<svg xmlns="http://www.w3.org/2000/svg" width="20" height="20" viewBox="0 0 20 20">
  <g id="Error-circle" transform="translate(-2 -2)">
    <circle id="Oval-5" cx="10" cy="10" r="10" transform="translate(2 2)" fill="#dbdbdb" opacity="0.3"/>
    <path id="Combined-Shape" d="M12.036,10.621l2.828-2.828a1,1,0,1,1,1.414,1.414L13.45,12.036l2.828,2.828a1,1,0,1,1-1.414,1.414L12.036,13.45,9.207,16.278a1,1,0,1,1-1.414-1.414l2.828-2.828L7.793,9.207A1,1,0,0,1,9.207,7.793Z" fill="#ed7373"/>
  </g>
</svg>
